{
    "count": 964,
    "next": "https://pokeapi.co/api/v2/pokemon?offset=210&limit=10",
    "previous": "https://pokeapi.co/api/v2/pokemon?offset=190&limit=10",
    "results": [
      {
        "name": "unown",
        "url": "https://pokeapi.co/api/v2/pokemon/201/"
      },
      {
        "name": "wobbuffet",
        "url": "https://pokeapi.co/api/v2/pokemon/202/"
      },
      {
        "name": "girafarig",
        "url": "https://pokeapi.co/api/v2/pokemon/203/"
      },
      {
        "name": "pineco",
        "url": "https://pokeapi.co/api/v2/pokemon/204/"
      },
      {
        "name": "forretress",
        "url": "https://pokeapi.co/api/v2/pokemon/205/"
      },
      {
        "name": "dunsparce",
        "url": "https://pokeapi.co/api/v2/pokemon/206/"
      },
      {
        "name": "gligar",
        "url": "https://pokeapi.co/api/v2/pokemon/207/"
      },
      {
        "name": "steelix",
        "url": "https://pokeapi.co/api/v2/pokemon/208/"
      },
      {
        "name": "snubbull",
        "url": "https://pokeapi.co/api/v2/pokemon/209/"
      },
      {
        "name": "granbull",
        "url": "https://pokeapi.co/api/v2/pokemon/210/"
      }
    ]
  }